Data formatting • ForestPlotR
…
Additional unrequired columns can also be included in the tree census dataset without disrupting function performance (e.g. tag in tree) and column order is not important.

Data checking

To obtain accurate and useful neighborhood descriptions it is important that the mapping and tree census datasets are cleaned of any unusual or missing data. The ForestPlotR package contains functions to assist with the cleaning process but these functions only highlight cases of missing data rather than automatically removing the associated observations. This is because not all cases of missing data prevent all types of analysis and some missing data can be inferred from data collection records (e.g. missing year of measurement in tree census data).

mapping_check(): Check mapping datasets

The built-in dataset messy_mapping contains examples of common data errors in mapping datasets. For instance, there are 10 tree ids that are connected to more than one mapping record:

messy_mapping %>%
  group_by(tree_id) %>%
  summarize(count = n()) %>%
  filter(count > 1)
#> # A tibble: 10 x 2
#>   tree_id       count
#>   <chr>         <int>
#> 1 AE10001100015     2
#> 2 AM16000400020     2
#> 3 AM16001200016     2
#> 4 AV02000100011     2
#> # ... with 6 more rows
…
The tree_check() function checks a tree census dataset for a variety of common errors. A mapping dataset needs to be supplied to the function so that trees in the tree census data that have no associated mapping can be identified. tree_check() returns a list containing two elements. The first element ($problem_trees) is a data frame containing the tree ids that were flagged as having a data issue and summarizes the issue.

tree_issues <- tree_check(tree_data = messy_tree, map_data = mapping)
#> [1] "Potential formatting problems detected: please review output and correct errors or remove problem trees if necessary before continuing analysis"
head(tree_issues$problem_trees)
#> # A tibble: 6 x 2
#>   tree_id       issue                   
#>   <chr>         <chr>                   
#> 1 AB08000100012 refers to multiple trees
#> 2 AB08000300005 refers to multiple trees
#> 3 AB08000300020 refers to multiple trees
#> 4 AB08000300024 refers to multiple trees
#> # ... with 2 more rows
…
