Describing neighborhoods • ForestPlotR
…
The neighborhood_summary() function takes output of the neighborhoods() function and calculates species diversity metrics, overall tree density, and densities of each tree species for each neighborhood. Diversity metrics include species richness, Shannon-Wiener diversity, Simpson’s diversity, and evenness (Pielou’s J).

The densities argument is used to specify how densities should be calculated. The optimal method for density calculation is likely to vary between study systems and processes of interest. If the differential effects of neighbor tree species are likely to be influenced by how close the neighbors of each species are to the focal (e.g. when differences relate to competition for soil moisture or nutrients), the angular method may be more appropriate. However, if the forest is in the vertical diversification stage of successional development, the influence of a large canopy-forming neighbor species may be relatively unaffected by whether neighbors of that species are 5m vs. 10m from the focal tree - in this case the raw or proportional measures may be more relevant.

There is also an option to correct the density values for neighborhoods that overlap the stand boundary. When edge_correction = T, the density and species richness values for neighborhoods that overlap the stand boundary will be multiplied according to the proportion of their neighborhood that lies beyond the stand boundary (species richness values are rounded to the nearest whole number). See function documentation for details.

neighborhood_summary(densities = "raw")

Overall tree density and species-specific densities will be presented in units of \(m^{2}ha^{-1}\), with the area occupied by each tree calculated as the area of the trunk at breast height i.e. \[\pi(\frac{dbh}{2})^{2}\]

nbhd_summ <- neighborhood_summary(nbhds, id_column = "tree_id", radius = 10,
                                  densities = "raw")
nbhd_summ %>%
  select(tree_id, sps_richness, shannon, ABAM_density, TSHE_density, all_density)
#> # A tibble: 401 x 6
#>   tree_id       sps_richness shannon ABAM_density TSHE_density all_density
#>   <chr>                <int>   <dbl>        <dbl>        <dbl>       <dbl>
#> 1 AB08000100022            2   0.490         0            34.0        42.1
#> 2 AB08000100001            3   0.808         2.27         21.0        31.4
#> 3 AB08000100002            3   0.847         2.27         18.1        28.5
#> 4 AB08000100003            3   0.809         2.27         29.2        47.3
#> # ... with 397 more rows

neighborhood_summary(densities = "proportional")

Overall tree density is presented in units of \(m^{2}ha^{-1}\) but species-specific densities represent the proportion of overall tree density that each species accounts for.

nbhd_summ <- neighborhood_summary(nbhds, id_column = "tree_id", radius = 10,
                                  densities = "proportional")
nbhd_summ %>%
  select(tree_id, sps_richness, shannon, ABAM_density, TSHE_density, all_density)
#> # A tibble: 401 x 6
#>   tree_id       sps_richness shannon ABAM_density TSHE_density all_density
#>   <chr>                <int>   <dbl>        <dbl>        <dbl>       <dbl>
#> 1 AB08000100022            2   0.490       0             0.807        42.1
#> 2 AB08000100001            3   0.808       0.0721        0.669        31.4
#> 3 AB08000100002            3   0.847       0.0794        0.636        28.5
#> 4 AB08000100003            3   0.809       0.0479        0.618        47.3
#> # ... with 397 more rows

neighborhood_summary(densities = "angular")

Overall tree density and species-specific densities calculated as the sum of angles occupied by trees, where the angle occupied by a single tree is: \[arctan(\frac{dbh}{distance})\] In the above, dbh is the dbh of the neighbor tree and distance is the distance from the neighborhood center to the neighbor tree.

nbhd_summ <- neighborhood_summary(nbhds, id_column = "tree_id", radius = 10,
                                  densities = "angular")
nbhd_summ %>%
  select(tree_id, sps_richness, shannon, ABAM_angle_sum, TSHE_angle_sum,
         all_angle_sum)
#> # A tibble: 401 x 6
#>   tree_id       sps_richness shannon ABAM_angle_sum TSHE_angle_sum all_angle_sum
#>   <chr>                <int>   <dbl>          <dbl>          <dbl>         <dbl>
#> 1 AB08000100022            2   0.490         0               0.428         0.503
#> 2 AB08000100001            3   0.808         0.0379          0.671         0.779
#> 3 AB08000100002            3   0.847         0.0323          0.530         0.626
#> 4 AB08000100003            3   0.809         0.0391          0.509         0.805
#> # ... with 397 more rows

neighborhood_summary(neighbors_incl = "larger_only")

It is also possible to restrict the diversity and density calculations to include only the neighbor trees that are larger than the focal. This may be useful if trees in the study system are expected to compete far less strongly with neighbors that are smaller than them.

nbhd_summ <- neighborhood_summary(nbhds, id_column = "tree_id", radius = 10,
                                  densities = "angular",
                                  neighbors_incl = "larger_only")
nbhd_summ %>%
  select(tree_id, sps_richness, shannon, ABAM_angle_sum, TSHE_angle_sum,
         all_angle_sum)
#> # A tibble: 364 x 6
#>   tree_id       sps_richness shannon ABAM_angle_sum TSHE_angle_sum all_angle_sum
#>   <chr>                <int>   <dbl>          <dbl>          <dbl>         <dbl>
#> 1 AB08000100022            2   0.490         0               0.428         0.503
#> 2 AB08000100001            2   0.635         0               0.535         0.606
#> 3 AB08000100003            3   0.813         0.0391          0.479         0.774
#> 4 AB08000100004            1   0             0               0.174         0.174
#> # ... with 360 more rows
…
