Modeling tree growth • ForestPlot
…
Now we can call the growth_model() function, which fits a linear regularized regression model of tree growth. In the most basic use case, this function requires only a training set and the name of the dependent variable, which should be a column in the training set. We set the seed because the model fitting process is stochastic.

set.seed(1000)
basic_growth_mod <- growth_model(training, outcome_var = "size_corr_growth")

The output of the above code is a list containing 4 elements. The first element mod is the model object. The second element obs_pred is a data frame of observed and model predicted growth for each tree. The third element is the R^2 value of the model. The fourth element is the estimated coefficients.

# R^2 value
basic_growth_mod$R_squared
#> [1] 0.1893548

# Observations and model predictions
basic_growth_mod$obs_pred
#> # A tibble: 1,804 x 3
#>   tree_id       observations predictions
#>   <chr>                <dbl>       <dbl>
#> 1 AB08000300014        0.129       0.127
#> 2 AB08000300021        0.160       0.138
#> 3 AB08000300024        0.119       0.146
#> 4 AB08000300027        0.128       0.132
#> # ... with 1,800 more rows
…
